Proyecto
…
Dataset_Life_expectancy$`Hepatitis B` <- log10(max(Dataset_Life_expectancy$`Hepatitis B`+1) - Dataset_Life_expectancy$`Hepatitis B`)

Dataset_Life_expectancy$`BMI` <- log10(max(Dataset_Life_expectancy$`BMI`+1) - Dataset_Life_expectancy$`BMI`)

Dataset_Life_expectancy$`Polio` <- log10(max(Dataset_Life_expectancy$`Polio`+1) - Dataset_Life_expectancy$`Polio`)

Dataset_Life_expectancy$`Total expenditure` <- log10(Dataset_Life_expectancy$`Total expenditure`)

Dataset_Life_expectancy$`Diphtheria` <- log10(max(Dataset_Life_expectancy$`Diphtheria`+1) - Dataset_Life_expectancy$`Diphtheria`)

Dataset_Life_expectancy

## # A tibble: 1,649 x 23
##    Country      Year Status `Life expectancy` `Adult Mortality` `infant deaths`
##    <chr>       <dbl> <chr>              <dbl>             <dbl>           <dbl>
##  1 Afghanistan  2015 0                   1.37              2.42              62
##  2 Afghanistan  2014 0                   1.38              2.43              64
##  3 Afghanistan  2013 0                   1.38              2.43              66
##  4 Afghanistan  2012 0                   1.38              2.43              69
##  5 Afghanistan  2011 0                   1.39              2.44              71
##  6 Afghanistan  2010 0                   1.40              2.45              74
##  7 Afghanistan  2009 0                   1.40              2.45              77
##  8 Afghanistan  2008 0                   1.41              2.46              80
##  9 Afghanistan  2007 0                   1.42              2.47              82
## 10 Afghanistan  2006 0                   1.42              2.47              84
## # ... with 1,639 more rows, and 17 more variables: Alcohol <dbl>,
## #   percentage expenditure <dbl>, Hepatitis B <dbl>, Measles <dbl>, BMI <dbl>,
## #   under-five deaths <dbl>, Polio <dbl>, Total expenditure <dbl>,
## #   Diphtheria <dbl>, HIV/AIDS <dbl>, GDP <dbl>, Population <dbl>,
## #   thinness  1-19 years <dbl>, thinness 5-9 years <dbl>,
## #   Income composition of resources <dbl>, Schooling <dbl>, continent <chr>
…
